 Atom-specific Magnetic observables: Hei   
 Nara Version: 0.5.0.c
 Temperature Hfield_x Hfield_y Hfield_z Magnetization_x Magnetization_y Magnetization_z                                                                                                                                                                                                                      
  0.12500000000000000        0.0000000000000000        0.0000000000000000        0.0000000000000000        7.6649629769754619E-005  -1.4791242586024820E-004  0.99070958961479716     
  0.25000000000000000        0.0000000000000000        0.0000000000000000        0.0000000000000000       -2.0939690597355698E-004  -6.2886180141186469E-004  0.98113097890751355     
  0.37500000000000000        0.0000000000000000        0.0000000000000000        0.0000000000000000       -2.9042038063883968E-004   3.7921138094546149E-004  0.97120829052524582     
  0.50000000000000000        0.0000000000000000        0.0000000000000000        0.0000000000000000        3.2923440846833633E-004  -5.1112295611922312E-005  0.96082096433002340     
  0.62500000000000000        0.0000000000000000        0.0000000000000000        0.0000000000000000       -6.9686911686310787E-004  -2.5466251994835922E-004  0.94980550622603421     
  0.75000000000000000        0.0000000000000000        0.0000000000000000        0.0000000000000000        8.8437855864109300E-005  -8.9741725442580797E-004  0.93805280973983318     
  0.87500000000000000        0.0000000000000000        0.0000000000000000        0.0000000000000000        1.0461993380020580E-004  -2.4581004224053936E-004  0.92469039966691347     
   1.0000000000000000        0.0000000000000000        0.0000000000000000        0.0000000000000000       -5.6104659101034770E-004  -4.4793838364814525E-004  0.90818871489357877     
   1.1250000000000000        0.0000000000000000        0.0000000000000000        0.0000000000000000        2.1114210638703849E-004  -6.9512576254949251E-004  0.88677210163107134     
   1.2500000000000000        0.0000000000000000        0.0000000000000000        0.0000000000000000        1.1033566037162321E-004  -5.8191014614058098E-005  0.85418926225696901     
   1.2749999999999999        0.0000000000000000        0.0000000000000000        0.0000000000000000        1.8346153319382088E-004   6.1627318984198954E-004  0.84464073888427416     
   1.3000000000000000        0.0000000000000000        0.0000000000000000        0.0000000000000000       -6.0100275559133408E-004   9.0667525590009768E-004  0.83518769648483171     
   1.3250000000000000        0.0000000000000000        0.0000000000000000        0.0000000000000000       -7.5285407318616759E-004   4.7839620555714468E-004  0.82348892031100362     
   1.3500000000000001        0.0000000000000000        0.0000000000000000        0.0000000000000000       -9.2210809855033384E-004   3.6610948828101278E-004  0.81137300647351529     
   1.3750000000000000        0.0000000000000000        0.0000000000000000        0.0000000000000000        6.5939967827863505E-004   2.1148308221483823E-004  0.79800717547027944     
   1.3999999999999999        0.0000000000000000        0.0000000000000000        0.0000000000000000       -5.4094323018504605E-004  -3.6615621389932247E-005  0.78149021996922596     
   1.4250000000000000        0.0000000000000000        0.0000000000000000        0.0000000000000000        5.1075944896821000E-004  -2.0923688654161642E-004  0.76086662607056466     
   1.4500000000000000        0.0000000000000000        0.0000000000000000        0.0000000000000000        1.2220747290447908E-003  -1.6239852825667927E-004  0.73671647156147091     
   1.4750000000000001        0.0000000000000000        0.0000000000000000        0.0000000000000000        7.0192351717087841E-004   5.7365452784176037E-004  0.69892894651062365     
   1.5000000000000000        0.0000000000000000        0.0000000000000000        0.0000000000000000        1.0508209103078031E-003   1.2507849935129066E-004  0.67646834389845489     
   1.5249999999999999        0.0000000000000000        0.0000000000000000        0.0000000000000000       -5.0664779218795276E-004   1.2123853840390578E-003  0.55614195504983110     
   1.5500000000000000        0.0000000000000000        0.0000000000000000        0.0000000000000000       -3.3722694452016774E-004   8.4244167036099315E-004 -0.27671190854861344     
   1.5750000000000000        0.0000000000000000        0.0000000000000000        0.0000000000000000        2.0579788120287073E-004  -5.1603837513577522E-004 -0.20155560493886351     
   1.6000000000000001        0.0000000000000000        0.0000000000000000        0.0000000000000000        3.4144509026021852E-004   6.3079345534970428E-004  -6.6200918689925461E-002
   1.6250000000000000        0.0000000000000000        0.0000000000000000        0.0000000000000000        5.6428918621525832E-004  -1.0926096686125855E-003  -7.6272451475414366E-002
   1.6499999999999999        0.0000000000000000        0.0000000000000000        0.0000000000000000       -6.9082437614289486E-004  -6.7471919680173577E-004  -1.6831202809475691E-002
   1.6750000000000000        0.0000000000000000        0.0000000000000000        0.0000000000000000       -5.4009855678586864E-004   6.4695454895934330E-004  -4.1971352536061213E-002
   1.7000000000000000        0.0000000000000000        0.0000000000000000        0.0000000000000000       -2.7110669184518305E-004  -4.1141295889563276E-005   8.2038521968632889E-003
   1.7250000000000001        0.0000000000000000        0.0000000000000000        0.0000000000000000        4.1122325197716234E-004   4.2837009929581578E-004  -1.7834814576254784E-002
   1.7500000000000000        0.0000000000000000        0.0000000000000000        0.0000000000000000       -2.7298755289270848E-004   9.1921065774290957E-004  -9.8774903118357821E-003
   1.8750000000000000        0.0000000000000000        0.0000000000000000        0.0000000000000000       -1.3863023531880496E-004   9.0931491433743469E-004  -1.6804250277311774E-002
   2.0000000000000000        0.0000000000000000        0.0000000000000000        0.0000000000000000       -3.3992391851342055E-004   5.2298025917648077E-004   2.1367206062872573E-003
   2.1250000000000000        0.0000000000000000        0.0000000000000000        0.0000000000000000       -2.0547513610171575E-004   2.7577434233865938E-004   4.7054435812881670E-003
   2.2500000000000000        0.0000000000000000        0.0000000000000000        0.0000000000000000        4.2557156723721008E-004  -1.7158687849318027E-004   1.0611622412124103E-003
   2.3750000000000000        0.0000000000000000        0.0000000000000000        0.0000000000000000       -1.2685075156671174E-004  -5.3816473034768580E-004  -7.2453659248512191E-005
   2.5000000000000000        0.0000000000000000        0.0000000000000000        0.0000000000000000       -1.5641082827474041E-004  -3.3107142089948486E-004  -2.8613961218911042E-004
   2.6250000000000000        0.0000000000000000        0.0000000000000000        0.0000000000000000       -9.4145463894920755E-005  -9.4708806205598091E-004   2.3320942345551520E-003
   2.7500000000000000        0.0000000000000000        0.0000000000000000        0.0000000000000000        9.4390155286788974E-004   3.4083847706422720E-004   2.1258697803353262E-003
   2.8750000000000000        0.0000000000000000        0.0000000000000000        0.0000000000000000       -1.0351872316664212E-003   2.9205210539941327E-004  -1.2734528062184245E-004
   3.0000000000000000        0.0000000000000000        0.0000000000000000        0.0000000000000000       -7.9667355997144071E-005   2.6382818674999407E-004   1.3897736557343197E-003
