 Atom-specific Magnetic observables: Hei   
 Nara Version: 0.5.0.c
 Temperature Hfield_x Hfield_y Hfield_z TotMagnetization Susceptibility BinderCTMag                                                                                                                                                                                                                          
  0.12500000000000000        0.0000000000000000        0.0000000000000000        0.0000000000000000       0.99071451104078678        4.7558687137604967E-004   0.0000000000000000     
  0.25000000000000000        0.0000000000000000        0.0000000000000000        0.0000000000000000       0.98114158579609245        1.2992370065908875E-003   0.0000000000000000     
  0.37500000000000000        0.0000000000000000        0.0000000000000000        0.0000000000000000       0.97122477856446732        2.4144188781097726E-003   0.0000000000000000     
  0.50000000000000000        0.0000000000000000        0.0000000000000000        0.0000000000000000       0.96084304355484840        3.4945791555148096E-003   0.0000000000000000     
  0.62500000000000000        0.0000000000000000        0.0000000000000000        0.0000000000000000       0.94983209781986755        4.5766007803937662E-003   0.0000000000000000     
  0.75000000000000000        0.0000000000000000        0.0000000000000000        0.0000000000000000       0.93808530180022065        7.5301176568207673E-003   0.0000000000000000     
  0.87500000000000000        0.0000000000000000        0.0000000000000000        0.0000000000000000       0.92473183909988876        1.2261603679462696E-002   0.0000000000000000     
   1.0000000000000000        0.0000000000000000        0.0000000000000000        0.0000000000000000       0.90823964655349032        1.8882134929665659E-002   0.0000000000000000     
   1.1250000000000000        0.0000000000000000        0.0000000000000000        0.0000000000000000       0.88682728724046811        3.6351732549505335E-002   0.0000000000000000     
   1.2500000000000000        0.0000000000000000        0.0000000000000000        0.0000000000000000       0.85425933783758123       0.10145153470275714        0.0000000000000000     
   1.2749999999999999        0.0000000000000000        0.0000000000000000        0.0000000000000000       0.84471464499188109       0.10846617865069365        0.0000000000000000     
   1.3000000000000000        0.0000000000000000        0.0000000000000000        0.0000000000000000       0.83526229831500787       0.13310565249420109        0.0000000000000000     
   1.3250000000000000        0.0000000000000000        0.0000000000000000        0.0000000000000000       0.82356475441379351       0.18203011848309664        0.0000000000000000     
   1.3500000000000001        0.0000000000000000        0.0000000000000000        0.0000000000000000       0.81145964187579589       0.23256436416832105        0.0000000000000000     
   1.3750000000000000        0.0000000000000000        0.0000000000000000        0.0000000000000000       0.79809320342509504       0.28835175872526836        0.0000000000000000     
   1.3999999999999999        0.0000000000000000        0.0000000000000000        0.0000000000000000       0.78158483192533545       0.54869476750501389        0.0000000000000000     
   1.4250000000000000        0.0000000000000000        0.0000000000000000        0.0000000000000000       0.76096074275222281       0.67829708287899337        0.0000000000000000     
   1.4500000000000000        0.0000000000000000        0.0000000000000000        0.0000000000000000       0.73682090381490983       0.89579918133894232        0.0000000000000000     
   1.4750000000000001        0.0000000000000000        0.0000000000000000        0.0000000000000000       0.69904456805908866        1.4005457122131639        0.0000000000000000     
   1.5000000000000000        0.0000000000000000        0.0000000000000000        0.0000000000000000       0.67659664741760639        1.5800874468929202        0.0000000000000000     
   1.5249999999999999        0.0000000000000000        0.0000000000000000        0.0000000000000000       0.55630652530948665        6.4338210885498581        0.0000000000000000     
   1.5500000000000000        0.0000000000000000        0.0000000000000000        0.0000000000000000       0.27709002671374228        20.094307897701082        0.0000000000000000     
   1.5750000000000000        0.0000000000000000        0.0000000000000000        0.0000000000000000       0.20892006653944573        18.381516040299299        0.0000000000000000     
   1.6000000000000001        0.0000000000000000        0.0000000000000000        0.0000000000000000       0.11230341720648306        7.4613513359181667        0.0000000000000000     
   1.6250000000000000        0.0000000000000000        0.0000000000000000        0.0000000000000000        8.8002855404988686E-002   4.3677908941861636        0.0000000000000000     
   1.6499999999999999        0.0000000000000000        0.0000000000000000        0.0000000000000000        7.5779220278045664E-002   3.7430136779342011        0.0000000000000000     
   1.6750000000000000        0.0000000000000000        0.0000000000000000        0.0000000000000000       0.10338063968420425        8.0102457091302917        0.0000000000000000     
   1.7000000000000000        0.0000000000000000        0.0000000000000000        0.0000000000000000        6.5428562577634478E-002   3.0237615341863973        0.0000000000000000     
   1.7250000000000001        0.0000000000000000        0.0000000000000000        0.0000000000000000        5.7799482696194664E-002   1.9814603970893161        0.0000000000000000     
   1.7500000000000000        0.0000000000000000        0.0000000000000000        0.0000000000000000        7.6973590450025345E-002   2.9149241886834369        0.0000000000000000     
   1.8750000000000000        0.0000000000000000        0.0000000000000000        0.0000000000000000        4.2627503820692116E-002  0.95934737457069041        0.0000000000000000     
   2.0000000000000000        0.0000000000000000        0.0000000000000000        0.0000000000000000        3.6788238336402518E-002  0.63429478040946652        0.0000000000000000     
   2.1250000000000000        0.0000000000000000        0.0000000000000000        0.0000000000000000        3.5466668482031193E-002  0.47942403179198828        0.0000000000000000     
   2.2500000000000000        0.0000000000000000        0.0000000000000000        0.0000000000000000        3.1552963855653197E-002  0.31480936442527618        0.0000000000000000     
   2.3750000000000000        0.0000000000000000        0.0000000000000000        0.0000000000000000        2.9855160299364320E-002  0.26390854790893709        0.0000000000000000     
   2.5000000000000000        0.0000000000000000        0.0000000000000000        0.0000000000000000        2.6991212673660982E-002  0.18712065192901628        0.0000000000000000     
   2.6250000000000000        0.0000000000000000        0.0000000000000000        0.0000000000000000        2.6773382478025496E-002  0.17537210823610733        0.0000000000000000     
   2.7500000000000000        0.0000000000000000        0.0000000000000000        0.0000000000000000        2.5991012042604324E-002  0.14361349995372594        0.0000000000000000     
   2.8750000000000000        0.0000000000000000        0.0000000000000000        0.0000000000000000        2.4879320734080699E-002  0.11710497518935875        0.0000000000000000     
   3.0000000000000000        0.0000000000000000        0.0000000000000000        0.0000000000000000        2.4757008208886894E-002  0.11874095384616896        0.0000000000000000     
